<?xml version="1.0" encoding="UTF-8" standalone="no"?>
<!-- Created with Inkscape (http://www.inkscape.org/) -->

<svg
   xmlns:dc="http://purl.org/dc/elements/1.1/"
   xmlns:cc="http://creativecommons.org/ns#"
   xmlns:rdf="http://www.w3.org/1999/02/22-rdf-syntax-ns#"
   xmlns:svg="http://www.w3.org/2000/svg"
   xmlns="http://www.w3.org/2000/svg"
   xmlns:sodipodi="http://sodipodi.sourceforge.net/DTD/sodipodi-0.dtd"
   xmlns:inkscape="http://www.inkscape.org/namespaces/inkscape"
   width="260"
   height="260"
   viewBox="0 0 41.275 41.275"
   version="1.1"
   id="svg8"
   inkscape:version="0.92.5 (2060ec1f9f, 2020-04-08)"
   sodipodi:docname="lmno.svg">
  <defs
     id="defs2" />
  <sodipodi:namedview
     id="base"
     pagecolor="#ffffff"
     bordercolor="#666666"
     borderopacity="1.0"
     inkscape:pageopacity="0.0"
     inkscape:pageshadow="2"
     inkscape:zoom="1.979899"
     inkscape:cx="99.276015"
     inkscape:cy="131.79368"
     inkscape:document-units="mm"
     inkscape:current-layer="layer1"
     showgrid="false"
     units="px"
     scale-x="0.6"
     inkscape:window-width="1899"
     inkscape:window-height="1436"
     inkscape:window-x="0"
     inkscape:window-y="0"
     inkscape:window-maximized="0" />
  <metadata
     id="metadata5">
    <rdf:RDF>
      <cc:Work
         rdf:about="">
        <dc:format>image/svg+xml</dc:format>
        <dc:type
           rdf:resource="http://purl.org/dc/dcmitype/StillImage" />
        <dc:title></dc:title>
      </cc:Work>
    </rdf:RDF>
  </metadata>
  <g
     inkscape:label="Layer 1"
     inkscape:groupmode="layer"
     id="layer1"
     transform="translate(0,-228.20834)">
    <path
       sodipodi:nodetypes="ccccccc"
       inkscape:connector-curvature="0"
       id="path4524"
       style="font-style:normal;font-variant:normal;font-weight:bold;font-stretch:normal;font-size:23.28333282px;line-height:16.39887428px;font-family:sans-serif;-inkscape-font-specification:'sans-serif, Bold';font-variant-ligatures:normal;font-variant-caps:normal;font-variant-numeric:normal;font-feature-settings:normal;text-align:start;writing-mode:lr-tb;text-anchor:start;fill:#000000;fill-opacity:1;stroke:none;stroke-width:0.04445;stroke-linecap:butt;stroke-miterlimit:10;stroke-dasharray:none;stroke-dashoffset:0;stroke-opacity:1"
       d="m 2.6520348,230.16805 h 4.3769937 v 13.66532 H 18.081943 v 3.30832 H 2.6520348 Z" />
    <path
       inkscape:connector-curvature="0"
       id="path4526"
       style="font-style:normal;font-variant:normal;font-weight:bold;font-stretch:normal;font-size:23.28333282px;line-height:16.39887428px;font-family:sans-serif;-inkscape-font-specification:'sans-serif, Bold';font-variant-ligatures:normal;font-variant-caps:normal;font-variant-numeric:normal;font-feature-settings:normal;text-align:start;writing-mode:lr-tb;text-anchor:start;fill:#000000;fill-opacity:1;stroke:none;stroke-width:0.04445;stroke-linecap:butt;stroke-miterlimit:10;stroke-dasharray:none;stroke-dashoffset:0;stroke-opacity:1"
       d="m 19.739363,230.16805 h 5.570719 l 3.865397,9.08369 3.888135,-9.08369 h 5.559351 v 16.97364 h -4.138249 v -12.41474 l -3.910872,9.15189 h -2.773991 l -3.910873,-9.15189 v 12.41474 h -4.149617 z" />
    <path
       inkscape:connector-curvature="0"
       id="path4528"
       style="font-style:normal;font-variant:normal;font-weight:bold;font-stretch:normal;font-size:23.28333282px;line-height:16.39887428px;font-family:sans-serif;-inkscape-font-specification:'sans-serif, Bold';font-variant-ligatures:normal;font-variant-caps:normal;font-variant-numeric:normal;font-feature-settings:normal;text-align:start;writing-mode:lr-tb;text-anchor:start;fill:#000000;fill-opacity:1;stroke:none;stroke-width:0.04445;stroke-linecap:butt;stroke-miterlimit:10;stroke-dasharray:none;stroke-dashoffset:0;stroke-opacity:1"
       d="m 2.6520348,250.22028 h 4.8885904 l 6.1732668,11.64167 v -11.64167 h 4.149617 v 16.97364 h -4.88859 L 6.8016522,255.55225 v 11.64167 H 2.6520348 Z" />
    <path
       inkscape:connector-curvature="0"
       id="path4530"
       style="font-style:normal;font-variant:normal;font-weight:bold;font-stretch:normal;font-size:23.28333282px;line-height:16.39887428px;font-family:sans-serif;-inkscape-font-specification:'sans-serif, Bold';font-variant-ligatures:normal;font-variant-caps:normal;font-variant-numeric:normal;font-feature-settings:normal;text-align:start;writing-mode:lr-tb;text-anchor:start;fill:#000000;fill-opacity:1;stroke:none;stroke-width:0.04445;stroke-linecap:butt;stroke-miterlimit:10;stroke-dasharray:none;stroke-dashoffset:0;stroke-opacity:1"
       d="m 29.891715,252.75553 q -2.000911,0 -3.103686,1.47795 -1.102775,1.47794 -1.102775,4.16098 0,2.67167 1.102775,4.14962 1.102775,1.47795 3.103686,1.47795 2.012281,0 3.115056,-1.47795 1.102775,-1.47795 1.102775,-4.14962 0,-2.68304 -1.102775,-4.16098 -1.102775,-1.47795 -3.115056,-1.47795 z m 0,-3.1719 q 4.092774,0 6.412012,2.34198 2.319238,2.34197 2.319238,6.46885 0,4.11551 -2.319238,6.45749 -2.319238,2.34197 -6.412012,2.34197 -4.081404,0 -6.412011,-2.34197 -2.319238,-2.34198 -2.319238,-6.45749 0,-4.12688 2.319238,-6.46885 2.330607,-2.34198 6.412011,-2.34198 z" />
  </g>
</svg>
